…
  .. ..$ Gold Medals             : list()
  .. .. ..- attr(*, "class")= chr  "collector_integer" "collector"
  .. ..$ Silver Medals           : list()
  .. .. ..- attr(*, "class")= chr  "collector_integer" "collector"
  .. ..$ Bronze Medals           : list()
  .. .. ..- attr(*, "class")= chr  "collector_integer" "collector"
  .. ..$ Total Medals            : list()
  .. .. ..- attr(*, "class")= chr  "collector_integer" "collector"
  ..$ default: list()
  .. ..- attr(*, "class")= chr  "collector_guess" "collector"
  ..- attr(*, "class")= chr "col_spec"
> View(olympic_data)
> olympic_data<- olympic_data[complete.cases(olympic_data),]
> olympic_data
# A tibble: 8,613 x 10
            Athlete   Age       Country  Year `Closing date of Olympics`      Sport `Gold Medals` `Silver Medals` `Bronze Medals` `Total Medals`
              <chr> <int>         <chr> <int>                      <chr>      <chr>         <int>           <int>           <int>          <int>
 1   Michael Phelps    23 United States  2008                   08-24-08   Swimming             8               0               0              8
 2   Michael Phelps    19 United States  2004                   08-29-04   Swimming             6               0               2              8
 3   Michael Phelps    27 United States  2012                 08-12-2012   Swimming             4               2               0              6
 4 Natalie Coughlin    25 United States  2008                   08-24-08   Swimming             1               2               3              6
 5    Aleksey Nemov    24        Russia  2000                 10-01-2000 Gymnastics             2               1               3              6
 6    Alicia Coutts    24     Australia  2012                 08-12-2012   Swimming             1               3               1              5
 7   Missy Franklin    17 United States  2012                 08-12-2012   Swimming             4               0               1              5
 8      Ryan Lochte    27 United States  2012                 08-12-2012   Swimming             2               2               1              5
 9  Allison Schmitt    22 United States  2012                 08-12-2012   Swimming             3               1               1              5
10 Natalie Coughlin    21 United States  2004                   08-29-04   Swimming             2               2               1              5
# ... with 8,603 more rows
…
 Class :character   1st Qu.:23.00   Class :character   1st Qu.:2002   Class :character         Class :character   1st Qu.:0.0000   1st Qu.:0.0000  
 Mode  :character   Median :26.00   Mode  :character   Median :2006   Mode  :character         Mode  :character   Median :0.0000   Median :0.0000  
                    Mean   :26.41                      Mean   :2006                                               Mean   :0.3649   Mean   :0.3629  
                    3rd Qu.:29.00                      3rd Qu.:2010                                               3rd Qu.:1.0000   3rd Qu.:1.0000  
                    Max.   :61.00                      Max.   :2012                                               Max.   :8.0000   Max.   :3.0000  
 Bronze Medals     Total Medals  
 Min.   :0.0000   Min.   :1.000  
 1st Qu.:0.0000   1st Qu.:1.000  
 Median :0.0000   Median :1.000  
 Mean   :0.3779   Mean   :1.106  
 3rd Qu.:1.0000   3rd Qu.:1.000  
 Max.   :3.0000   Max.   :8.000  
> swimmingdata<- subset(olympic_data, Sport=="Swimming")
> swimmingdata
# A tibble: 487 x 10
            Athlete   Age       Country  Year `Closing date of Olympics`    Sport `Gold Medals` `Silver Medals` `Bronze Medals` `Total Medals`
              <chr> <int>         <chr> <int>                      <chr>    <chr>         <int>           <int>           <int>          <int>
 1   Michael Phelps    23 United States  2008                   08-24-08 Swimming             8               0               0              8
 2   Michael Phelps    19 United States  2004                   08-29-04 Swimming             6               0               2              8
 3   Michael Phelps    27 United States  2012                 08-12-2012 Swimming             4               2               0              6
 4 Natalie Coughlin    25 United States  2008                   08-24-08 Swimming             1               2               3              6
 5    Alicia Coutts    24     Australia  2012                 08-12-2012 Swimming             1               3               1              5
 6   Missy Franklin    17 United States  2012                 08-12-2012 Swimming             4               0               1              5
 7      Ryan Lochte    27 United States  2012                 08-12-2012 Swimming             2               2               1              5
 8  Allison Schmitt    22 United States  2012                 08-12-2012 Swimming             3               1               1              5
 9 Natalie Coughlin    21 United States  2004                   08-29-04 Swimming             2               2               1              5
10       Ian Thorpe    17     Australia  2000                 10-01-2000 Swimming             3               2               0              5
# ... with 477 more rows
> range(swimmingdata$`Total Medals`)
[1] 1 8
> rank_swimming<-swimmingdata[order(swimmingdata$`Total Medals`, decreasing = TRUE),]
> rank_swimming
# A tibble: 487 x 10
            Athlete   Age       Country  Year `Closing date of Olympics`    Sport `Gold Medals` `Silver Medals` `Bronze Medals` `Total Medals`
              <chr> <int>         <chr> <int>                      <chr>    <chr>         <int>           <int>           <int>          <int>
 1   Michael Phelps    23 United States  2008                   08-24-08 Swimming             8               0               0              8
 2   Michael Phelps    19 United States  2004                   08-29-04 Swimming             6               0               2              8
 3   Michael Phelps    27 United States  2012                 08-12-2012 Swimming             4               2               0              6
 4 Natalie Coughlin    25 United States  2008                   08-24-08 Swimming             1               2               3              6
 5    Alicia Coutts    24     Australia  2012                 08-12-2012 Swimming             1               3               1              5
 6   Missy Franklin    17 United States  2012                 08-12-2012 Swimming             4               0               1              5
 7      Ryan Lochte    27 United States  2012                 08-12-2012 Swimming             2               2               1              5
 8  Allison Schmitt    22 United States  2012                 08-12-2012 Swimming             3               1               1              5
 9 Natalie Coughlin    21 United States  2004                   08-29-04 Swimming             2               2               1              5
10       Ian Thorpe    17     Australia  2000                 10-01-2000 Swimming             3               2               0              5
# ... with 477 more rows
> TTdata<- subset(olympic_data, Sport=="Table Tennis")
> TTdata
# A tibble: 67 x 10
             Athlete   Age   Country  Year `Closing date of Olympics`        Sport `Gold Medals` `Silver Medals` `Bronze Medals` `Total Medals`
               <chr> <int>     <chr> <int>                      <chr>        <chr>         <int>           <int>           <int>          <int>
 1         Ding Ning    22     China  2012                 08-12-2012 Table Tennis             1               1               0              2
 2     Feng Tian Wei    25 Singapore  2012                 08-12-2012 Table Tennis             0               0               2              2
 3        Li Xiaoxia    24     China  2012                 08-12-2012 Table Tennis             2               0               0              2
 4 Dmitrij Ovtcharov    23   Germany  2012                 08-12-2012 Table Tennis             0               0               2              2
 5          Wang Hao    28     China  2012                 08-12-2012 Table Tennis             1               1               0              2
 6        Zhang Jike    24     China  2012                 08-12-2012 Table Tennis             2               0               0              2
 7           Guo Yue    20     China  2008                   08-24-08 Table Tennis             1               0               1              2
 8            Ma Lin    28     China  2008                   08-24-08 Table Tennis             2               0               0              2
 9          Wang Hao    24     China  2008                   08-24-08 Table Tennis             1               1               0              2
10        Wang Liqin    30     China  2008                   08-24-08 Table Tennis             1               0               1              2
# ... with 57 more rows
> range(TTdata$`Total Medals`)
[1] 1 2
> rank_TTdata<-TTdata[order(TTdata$`Total Medals`, decreasing = TRUE),]
> shootdata<- subset(olympic_data, Sport=="Shooting")
> shootdata
# A tibble: 181 x 10
                   Athlete   Age        Country  Year `Closing date of Olympics`    Sport `Gold Medals` `Silver Medals` `Bronze Medals` `Total Medals`
                     <chr> <int>          <chr> <int>                      <chr>    <chr>         <int>           <int>           <int>          <int>
 1       Niccolò Campriani    24          Italy  2012                 08-12-2012 Shooting             1               1               0              2
 2              Jin Jong-O    32    South Korea  2012                 08-12-2012 Shooting             2               0               0              2
 3         Olena Kostevych    27        Ukraine  2012                 08-12-2012 Shooting             0               0               2              2
 4              Jin Jong-O    28    South Korea  2008                   08-24-08 Shooting             1               1               0              2
 5 Katerina Kurková-Emmons    24 Czech Republic  2008                   08-24-08 Shooting             1               1               0              2
 6          Lyubov Galkina    31         Russia  2004                   08-29-04 Shooting             1               1               0              2
 7         Mariya Grozdeva    32       Bulgaria  2004                   08-29-04 Shooting             1               0               1              2
 8               Lee Bo-Na    23    South Korea  2004                   08-29-04 Shooting             0               1               1              2
 9       Mikhail Nestruyev    35         Russia  2004                   08-29-04 Shooting             1               1               0              2
10           Igor Basinsky    37        Belarus  2000                 10-01-2000 Shooting             0               1               1              2
# ... with 171 more rows
> range(shootdata$`Total Medals`)
[1] 1 2
> rank_shootdata<-shootdata[order(shootdata$`Total Medals`, decreasing = TRUE),]
> rank_shootdata
# A tibble: 181 x 10
                   Athlete   Age        Country  Year `Closing date of Olympics`    Sport `Gold Medals` `Silver Medals` `Bronze Medals` `Total Medals`
                     <chr> <int>          <chr> <int>                      <chr>    <chr>         <int>           <int>           <int>          <int>
 1       Niccolò Campriani    24          Italy  2012                 08-12-2012 Shooting             1               1               0              2
 2              Jin Jong-O    32    South Korea  2012                 08-12-2012 Shooting             2               0               0              2
 3         Olena Kostevych    27        Ukraine  2012                 08-12-2012 Shooting             0               0               2              2
 4              Jin Jong-O    28    South Korea  2008                   08-24-08 Shooting             1               1               0              2
 5 Katerina Kurková-Emmons    24 Czech Republic  2008                   08-24-08 Shooting             1               1               0              2
 6          Lyubov Galkina    31         Russia  2004                   08-29-04 Shooting             1               1               0              2
 7         Mariya Grozdeva    32       Bulgaria  2004                   08-29-04 Shooting             1               0               1              2
 8               Lee Bo-Na    23    South Korea  2004                   08-29-04 Shooting             0               1               1              2
 9       Mikhail Nestruyev    35         Russia  2004                   08-29-04 Shooting             1               1               0              2
10           Igor Basinsky    37        Belarus  2000                 10-01-2000 Shooting             0               1               1              2
# ... with 171 more rows
> gymdata<- subset(olympic_data, Sport=="Gymnastics")
> gymdata
# A tibble: 194 x 10
           Athlete   Age       Country  Year `Closing date of Olympics`      Sport `Gold Medals` `Silver Medals` `Bronze Medals` `Total Medals`
             <chr> <int>         <chr> <int>                      <chr>      <chr>         <int>           <int>           <int>          <int>
 1   Aleksey Nemov    24        Russia  2000                 10-01-2000 Gymnastics             2               1               3              6
 2   Nastia Liukin    18 United States  2008                   08-24-08 Gymnastics             1               3               1              5
 3 Aliya Mustafina    17        Russia  2012                 08-12-2012 Gymnastics             1               1               2              4
 4   Shawn Johnson    16 United States  2008                   08-24-08 Gymnastics             1               3               0              4
 5     Aly Raisman    18 United States  2012                 08-12-2012 Gymnastics             2               0               1              3
 6  Kohei Uchimura    23         Japan  2012                 08-12-2012 Gymnastics             1               2               0              3
 7         Zou Kai    24         China  2012                 08-12-2012 Gymnastics             2               0               1              3
 8       Cheng Fei    20         China  2008                   08-24-08 Gymnastics             1               0               2              3
 9        Yang Wei    28         China  2008                   08-24-08 Gymnastics             2               1               0              3
10      Yang Yilin    15         China  2008                   08-24-08 Gymnastics             1               0               2              3
# ... with 184 more rows
> range(gymdata$`Total Medals`)
[1] 1 6
> rank_gymdata<-gymdata[order(gymdata$`Total Medals`, decreasing = TRUE),]
> rank_gymdata
# A tibble: 194 x 10
           Athlete   Age       Country  Year `Closing date of Olympics`      Sport `Gold Medals` `Silver Medals` `Bronze Medals` `Total Medals`
             <chr> <int>         <chr> <int>                      <chr>      <chr>         <int>           <int>           <int>          <int>
 1   Aleksey Nemov    24        Russia  2000                 10-01-2000 Gymnastics             2               1               3              6
 2   Nastia Liukin    18 United States  2008                   08-24-08 Gymnastics             1               3               1              5
 3 Aliya Mustafina    17        Russia  2012                 08-12-2012 Gymnastics             1               1               2              4
 4   Shawn Johnson    16 United States  2008                   08-24-08 Gymnastics             1               3               0              4
 5     Aly Raisman    18 United States  2012                 08-12-2012 Gymnastics             2               0               1              3
 6  Kohei Uchimura    23         Japan  2012                 08-12-2012 Gymnastics             1               2               0              3
 7         Zou Kai    24         China  2012                 08-12-2012 Gymnastics             2               0               1              3
 8       Cheng Fei    20         China  2008                   08-24-08 Gymnastics             1               0               2              3
 9        Yang Wei    28         China  2008                   08-24-08 Gymnastics             2               1               0              3
10      Yang Yilin    15         China  2008                   08-24-08 Gymnastics             1               0               2              3
# ... with 184 more rows
> totaldata<- olympic_data
> totaldata
# A tibble: 8,613 x 10
            Athlete   Age       Country  Year `Closing date of Olympics`      Sport `Gold Medals` `Silver Medals` `Bronze Medals` `Total Medals`
              <chr> <int>         <chr> <int>                      <chr>      <chr>         <int>           <int>           <int>          <int>
 1   Michael Phelps    23 United States  2008                   08-24-08   Swimming             8               0               0              8
 2   Michael Phelps    19 United States  2004                   08-29-04   Swimming             6               0               2              8
 3   Michael Phelps    27 United States  2012                 08-12-2012   Swimming             4               2               0              6
 4 Natalie Coughlin    25 United States  2008                   08-24-08   Swimming             1               2               3              6
 5    Aleksey Nemov    24        Russia  2000                 10-01-2000 Gymnastics             2               1               3              6
 6    Alicia Coutts    24     Australia  2012                 08-12-2012   Swimming             1               3               1              5
 7   Missy Franklin    17 United States  2012                 08-12-2012   Swimming             4               0               1              5
 8      Ryan Lochte    27 United States  2012                 08-12-2012   Swimming             2               2               1              5
 9  Allison Schmitt    22 United States  2012                 08-12-2012   Swimming             3               1               1              5
10 Natalie Coughlin    21 United States  2004                   08-29-04   Swimming             2               2               1              5
# ... with 8,603 more rows
…
